…
Separate words
--------------

``` r
bi_words <- bigram_cover_50 %>%
        separate(bigram, c("word1", "word2"), sep = " ")
bi_words
```

    ## # A tibble: 22,481 x 5
    ##    word1 word2     n proportion coverage
    ##    <chr> <chr> <int>      <dbl>    <dbl>
    ##  1 of    the   13151    0.00424  0.00424
    ##  2 in    the   12482    0.00402  0.00826
    ##  3 to    the    7892    0.00254  0.0108 
    ##  4 for   the    7178    0.00231  0.0131 
    ##  5 on    the    6450    0.00208  0.0152 
    ##  6 c     e      6280    0.00202  0.0172 
    ##  7 to    be     5935    0.00191  0.0191 
    ##  8 at    the    4627    0.00149  0.0206 
    ##  9 and   the    4520    0.00146  0.0221 
    ## 10 i     have   4226    0.00136  0.0234 
    ## # ... with 22,471 more rows

``` r
tri_words <- trigram_cover_50 %>%
        separate(trigram, c("word1", "word2", "word3"), sep = " ")
tri_words
```

    ## # A tibble: 739,688 x 6
    ##    word1  word2 word3     n proportion coverage
    ##    <chr>  <chr> <chr> <int>      <dbl>    <dbl>
    ##  1 thanks for   the    1268   0.000409 0.000409
    ##  2 one    of    the    1080   0.000348 0.000757
    ##  3 a      lot   of      938   0.000302 0.00106 
    ##  4 i      want  to      700   0.000226 0.00128 
    ##  5 to     be    a       659   0.000212 0.00150 
    ##  6 going  to    be      615   0.000198 0.00170 
    ##  7 i      donc  t       611   0.000197 0.00189 
    ##  8 i      have  to      601   0.000194 0.00209 
    ##  9 i      have  a       592   0.000191 0.00228 
    ## 10 the    of    the     560   0.000181 0.00246 
    ## # ... with 739,678 more rows

``` r
quad_words <- quadgram_cover_50 %>%
        separate(quadgram, c("word1", "word2", "word3", "word4"), sep = " ")
quad_words
```

    ## # A tibble: 1,364,574 x 7
    ##    word1  word2 word3 word4     n proportion  coverage
    ##    <chr>  <chr> <chr> <chr> <int>      <dbl>     <dbl>
    ##  1 the    end   of    the     274  0.0000883 0.0000883
    ##  2 the    rest  of    the     232  0.0000748 0.000163 
    ##  3 at     the   end   of      225  0.0000725 0.000236 
    ##  4 thanks for   the   rt      201  0.0000648 0.000300 
    ##  5 is     going to    be      172  0.0000554 0.000356 
    ##  6 thank  you   for   the     164  0.0000529 0.000409 
    ##  7 for    the   first time    163  0.0000525 0.000461 
    ##  8 at     the   same  time    161  0.0000519 0.000513 
    ##  9 thank  you   so    much    148  0.0000477 0.000561 
    ## 10 is     one   of    the     146  0.0000471 0.000608 
    ## # ... with 1,364,564 more rows
…
