…
``` r
disty <- data_frame(ngram = c(rep("bigrams",  nrow(bigram_cover)),
                              rep("trigrams",  nrow(trigram_cover)),
                              rep("quadgrams", nrow(quadgram_cover)),
                              rep("quintgrams", nrow(quintgram_cover)),
                              rep("sextgrams",  nrow(sextgram_cover))),
                    number = c(bigram_cover$n,  trigram_cover$n, 
                               quadgram_cover$n, quintgram_cover$n,
                               sextgram_cover$n))
disty
```

    ## # A tibble: 101,631 x 2
    ##    ngram   number
    ##    <chr>    <int>
    ##  1 bigrams  26610
    ##  2 bigrams  24653
    ##  3 bigrams  15989
    ##  4 bigrams  14186
    ##  5 bigrams  13226
    ##  6 bigrams  12410
    ##  7 bigrams  11822
    ##  8 bigrams   8997
    ##  9 bigrams   8864
    ## 10 bigrams   8292
    ## # ... with 101,621 more rows
…
    ## Saving 7 x 5 in image

Separate words
--------------

``` r
bi_words <- bigram_cover %>%
        separate(bigram, c("word1", "word2"), sep = " ")
bi_words
```

    ## # A tibble: 59,760 x 3
    ##    word1 word2     n
    ##    <chr> <chr> <int>
    ##  1 of    the   26610
    ##  2 in    the   24653
    ##  3 to    the   15989
    ##  4 for   the   14186
    ##  5 on    the   13226
    ##  6 c     e     12410
    ##  7 to    be    11822
    ##  8 at    the    8997
    ##  9 and   the    8864
    ## 10 i     have   8292
    ## # ... with 59,750 more rows

``` r
tri_words <- trigram_cover %>%
        separate(trigram, c("word1", "word2", "word3"), sep = " ")
tri_words
```

    ## # A tibble: 34,474 x 4
    ##    word1  word2 word3     n
    ##    <chr>  <chr> <chr> <int>
    ##  1 thanks for   the    2454
    ##  2 one    of    the    2120
    ##  3 a      lot   of     1919
    ##  4 i      want  to     1420
    ##  5 to     be    a      1394
    ##  6 going  to    be     1264
    ##  7 i      donc  t      1178
    ##  8 i      have  a      1164
    ##  9 the    of    the    1151
    ## 10 i      have  to     1137
    ## # ... with 34,464 more rows

``` r
quad_words <- quadgram_cover %>%
        separate(quadgram, c("word1", "word2", "word3", "word4"), sep = " ")
quad_words
```

    ## # A tibble: 6,401 x 5
    ##    word1  word2 word3 word4     n
    ##    <chr>  <chr> <chr> <chr> <int>
    ##  1 the    end   of    the     525
    ##  2 the    rest  of    the     478
    ##  3 at     the   end   of      420
    ##  4 for    the   first time    379
    ##  5 is     going to    be      370
    ##  6 thanks for   the   rt      359
    ##  7 at     the   same  time    356
    ##  8 thank  you   for   the     331
    ##  9 if     you   want  to      298
    ## 10 is     one   of    the     296
    ## # ... with 6,391 more rows

``` r
quint_words <- quintgram_cover %>%
        separate(quintgram, c("word1", "word2", "word3", "word4", "word5"), sep = " ")
quint_words
```

    ## # A tibble: 837 x 6
    ##    word1  word2 word3 word4 word5     n
    ##    <chr>  <chr> <chr> <chr> <chr> <int>
    ##  1 at     the   end   of    the     239
    ##  2 thank  you   so    much  for     105
    ##  3 for    the   rest  of    the      94
    ##  4 for    the   first time  in       93
    ##  5 is     going to    be    a        90
    ##  6 the    end   of    the   day      84
    ##  7 c      c     c     c     c        80
    ##  8 let    me    know  if    you      80
    ##  9 thanks so    much  for   the      77
    ## 10 i      donc  t     want  to       75
    ## # ... with 827 more rows

``` r
sext_words <- sextgram_cover %>%
        separate(sextgram, c("word1", "word2", "word3", "word4", "word5", "word6"), sep = " ")
sext_words
```

    ## # A tibble: 159 x 7
    ##    word1 word2    word3    word4 word5 word6     n
    ##    <chr> <chr>    <chr>    <chr> <chr> <chr> <int>
    ##  1 at    the      end      of    the   day      66
    ##  2 c     c        c        c     c     c        63
    ##  3 on    the      other    side  of    the      42
    ##  4 thank you      so       much  for   the      38
    ##  5 this  is       going    to    be    a        38
    ##  6 let   me       know     what  you   think    32
    ##  7 i     just     finished a     mi    run      28
    ##  8 just  finished a        mi    run   with     28
    ##  9 for   the      rest     of    the   day      27
    ## 10 c     k        c        k     c     k        25
    ## # ... with 149 more rows
…
