Task02
…
quadgrams_separated <- quadgram_cover_90 %>%
        separate(quadgram, c("word1", "word2", "word3", "word4"), sep = " ")
quadgrams_separated

## # A tibble: 5,092,014 x 7
##    word1  word2 word3 word4     n proportion  coverage
##    <chr>  <chr> <chr> <chr> <int>      <dbl>     <dbl>
##  1 the    end   of    the     525  0.0000843 0.0000843
##  2 the    rest  of    the     478  0.0000768 0.000161 
##  3 at     the   end   of      420  0.0000674 0.000229 
##  4 for    the   first time    379  0.0000609 0.000289 
##  5 is     going to    be      370  0.0000594 0.000349 
##  6 thanks for   the   rt      359  0.0000577 0.000406 
##  7 at     the   same  time    356  0.0000572 0.000464 
##  8 thank  you   for   the     331  0.0000532 0.000517 
##  9 if     you   want  to      298  0.0000479 0.000565 
## 10 is     one   of    the     296  0.0000475 0.000612 
## # ... with 5,092,004 more rows
…
